…
### Read through the file list and merge into one single data frame

``` r
df <- do.call ("rbind", 
               lapply (files, read.table, sep = ",")) %>% 
  # rbindlist (lapply (files, read.table, sep = ",")) 
  # works as well
  as_tibble %>% # turn the table into tibble
  print
## # A tibble: 5,838,786 x 5
##    V1    V2       V3 V4          V5
##    <fct> <fct> <int> <fct>    <int>
##  1 AK    F      1910 Mary        14
##  2 AK    F      1910 Annie       12
##  3 AK    F      1910 Anna        10
##  4 AK    F      1910 Margaret     8
##  5 AK    F      1910 Helen        7
##  6 AK    F      1910 Elsie        6
##  7 AK    F      1910 Lucy         6
##  8 AK    F      1910 Dorothy      5
##  9 AK    F      1911 Mary        12
## 10 AK    F      1911 Margaret     7
## # … with 5,838,776 more rows
…
header <- c ("state", "sex", "year", "name", "occurrence") # column names
names (df) <- header
df 
## # A tibble: 5,838,786 x 5
##    state sex    year name     occurrence
##    <fct> <fct> <int> <fct>         <int>
##  1 AK    F      1910 Mary             14
##  2 AK    F      1910 Annie            12
##  3 AK    F      1910 Anna             10
##  4 AK    F      1910 Margaret          8
##  5 AK    F      1910 Helen             7
##  6 AK    F      1910 Elsie             6
##  7 AK    F      1910 Lucy              6
##  8 AK    F      1910 Dorothy           5
##  9 AK    F      1911 Mary             12
## 10 AK    F      1911 Margaret          7
## # … with 5,838,776 more rows
```

### Some exploratory analysis: what are the most popular names of the years?

``` r
national_count <- df %>% # sum up national count of baby names
  group_by(sex, year, name) %>% 
  summarize (occurrence_all = sum (occurrence)) %>% 
  arrange (sex, year, desc(occurrence_all)) %>% 
  print
## # A tibble: 604,054 x 4
## # Groups:   sex, year [214]
##    sex    year name      occurrence_all
##    <fct> <int> <fct>              <int>
##  1 F      1910 Mary               22848
##  2 F      1910 Helen              10479
##  3 F      1910 Margaret            8222
##  4 F      1910 Dorothy             7314
##  5 F      1910 Ruth                7209
##  6 F      1910 Anna                6433
##  7 F      1910 Elizabeth           5792
##  8 F      1910 Mildred             5690
##  9 F      1910 Marie               4778
## 10 F      1910 Alice               4666
## # … with 604,044 more rows
…
